<?xml version="1.0" encoding="utf-8"?>
<!-- Generator: Adobe Illustrator 18.1.1, SVG Export Plug-In . SVG Version: 6.00 Build 0)  -->
<!DOCTYPE svg PUBLIC "-//W3C//DTD SVG 1.1//EN" "http://www.w3.org/Graphics/SVG/1.1/DTD/svg11.dtd">
<svg version="1.1" id="レイヤー_2" xmlns="http://www.w3.org/2000/svg" xmlns:xlink="http://www.w3.org/1999/xlink" x="0px"
	 y="0px" width="300px" height="50px" viewBox="0 0 300 50" enable-background="new 0 0 300 50" xml:space="preserve">
<g>
	<path fill="#FFFFFF" d="M1.2,9.7h13.9c2.4,0,4.2,0.5,5.3,1.6c1.1,1,1.7,2.4,1.7,4c0,2.7-1.1,5.2-3.3,7.5c-2.2,2.4-4.5,3.5-6.8,3.5
		c-0.5,0-1-0.1-1.6-0.2c-0.6-0.2-1.1-0.4-1.7-0.7v10.4c0,2.5,1.1,3.8,3.3,3.8v1.2H1.2v-1.2c1.3,0,2.2-0.3,2.7-0.8
		c0.5-0.5,0.7-1.5,0.7-3V14.7c0-1.6-0.2-2.6-0.7-3.1c-0.5-0.5-1.4-0.7-2.6-0.8V9.7z M8.6,12.4v9.8c0.9,0.8,1.8,1.4,2.7,1.8
		c0.8,0.4,1.6,0.6,2.4,0.6c1.4,0,2.4-0.5,3.1-1.5c0.7-1,1-2.6,1-4.6c0-2.1-0.4-3.9-1.3-5.3c-0.9-1.4-2.2-2.2-3.9-2.2
		C11.3,10.9,9.9,11.4,8.6,12.4"/>
	<path fill="#FFFFFF" d="M44.1,28c-0.2,0-0.4,0.1-0.8,0.1c-1.1,0.2-1.8,0.3-2.4,0.3c-1.8,0-3.3-0.5-4.5-1.6
		c-1.2-1.1-1.8-2.5-1.8-4.2c0-2.2,1-4.3,3-6.1c2-1.8,4.2-2.7,6.6-2.7c0.6,0,1.2,0.1,1.6,0.2c0.4,0.1,1.3,0.5,2.5,1
		c1.3,0.6,2.2,1,2.7,1.1c0.6,0.2,1.2,0.2,2,0.2h1.6v1.2h-4.5c0.4,0.9,0.5,1.6,0.5,2.3c0,1-0.2,2-0.7,3c-0.5,1-1.6,2.4-3.4,4.1
		c-1.7,1.7-2.6,2.8-2.6,3.5c0,0.5,0.3,1,0.9,1.4c0.6,0.4,1.7,0.9,3.3,1.5c2.3,0.8,3.9,1.7,5,2.5c1.1,0.8,1.6,1.9,1.6,3.3
		c0,2.4-1.4,4.5-4.2,6.2c-2.8,1.7-6,2.6-9.5,2.6c-2.6,0-4.8-0.5-6.5-1.5c-1.7-1-2.6-2.4-2.6-4c0-1.6,1-3.1,2.9-4.4
		c1.9-1.3,4.6-2.3,7.8-3c-0.5-0.4-0.9-0.9-1.2-1.3c-0.3-0.5-0.4-0.9-0.4-1.4c0-0.7,0.2-1.3,0.6-1.9C42.1,29.8,42.9,29,44.1,28
		 M44.1,35.6c-3,0.9-5.3,1.8-6.8,2.9c-1.5,1.1-2.3,2.2-2.3,3.5c0,1.1,0.6,2.2,1.9,3.1c1.2,0.9,3.1,1.4,5.6,1.4
		c2.8,0,5.1-0.6,6.7-1.8c1.6-1.2,2.5-2.6,2.5-4.1c0-0.9-0.3-1.5-1-2c-0.7-0.5-2-1.1-4.1-1.9L44.1,35.6z M42.9,15.3
		c-1.5,0-2.6,0.6-3.4,1.8c-0.8,1.2-1.2,2.6-1.2,4.2c0,1.6,0.4,3,1.2,4.2c0.8,1.2,1.9,1.7,3.2,1.7c1.3,0,2.4-0.6,3.3-1.7
		c0.9-1.1,1.3-2.6,1.3-4.3c0-1.7-0.4-3.1-1.3-4.2C45.2,15.8,44.1,15.3,42.9,15.3"/>
	<path fill="#FFFFFF" d="M58.6,16.4l5.8-2.6h1v7.9c1.5-2.9,2.9-4.9,4-6.1c1.2-1.2,2.4-1.8,3.6-1.8c0.5,0,1.1,0.1,1.7,0.4v7.5h-1.6
		c0-2.9-0.8-4.4-2.3-4.4c-1.5,0-2.8,1.4-4,4.1c-1.2,2.7-1.8,5.8-1.8,9.3c0,2,0.3,3.4,1,4c0.7,0.6,2,0.9,3.9,0.9v1.2H58.6v-1.2
		c1.2,0,2.1-0.3,2.6-0.9c0.5-0.5,0.8-1.5,0.8-2.9V19.2c0-1.4-0.5-2.1-1.4-2.1c-0.4,0-1,0.2-2,0.5V16.4z"/>
	<path fill="#FFFFFF" d="M96.3,30.3c-3.3,4.5-6.4,6.8-9.5,6.8c-2.2,0-4.1-1.1-5.8-3.2c-1.7-2.1-2.5-4.6-2.5-7.5c0-3.3,1-6.3,3-9
		c2-2.7,4.3-4,7-4c2.2,0,3.9,0.9,5.2,2.6c1.3,1.7,1.9,3.8,2,6.2H81.5c0,0.6,0,1.1,0,1.4c0,2.9,0.7,5.3,2.1,7.2
		c1.4,1.9,3.1,2.9,5.1,2.9c2.5,0,5.1-1.7,7.7-5.1V30.3z M92,21c-0.2-1.9-0.7-3.4-1.6-4.5c-0.9-1.1-2-1.6-3.3-1.6
		c-1.3,0-2.5,0.6-3.5,1.7c-1,1.1-1.7,2.6-1.9,4.3H92z"/>
	<path fill="#FFFFFF" d="M117.9,30.5c-3.2,4.4-6.3,6.7-9.3,6.7c-1.9,0-3.8-0.9-5.5-2.7c-1.8-1.8-2.6-4.4-2.6-7.8
		c0-3.5,1.1-6.6,3.2-9.2c2.1-2.7,4.7-4,7.7-4c1.8,0,3.8,0.5,5.9,1.6v6.4h-1.6c0-1.9-0.6-3.5-1.7-4.7c-1.1-1.2-2.4-1.8-4-1.8
		c-2,0-3.6,1-4.8,2.9c-1.1,1.9-1.7,4.1-1.7,6.6c0,2.7,0.6,5,1.9,6.8c1.3,1.8,2.9,2.8,4.9,2.8c1.2,0,2.4-0.4,3.5-1.2
		c1.1-0.8,2.5-2.1,4-3.9V30.5z"/>
	<path fill="#FFFFFF" d="M131.4,13.5c2.8,0,5,1,6.6,2.9c1.7,1.9,2.5,4.5,2.5,7.7c0,3.8-1.2,6.9-3.5,9.4c-2.3,2.5-4.9,3.7-7.6,3.7
		c-2.8,0-5-1-6.6-2.9c-1.6-2-2.4-4.5-2.4-7.7c0-3.7,1.1-6.9,3.4-9.3C126.2,14.7,128.7,13.5,131.4,13.5 M129.5,15.4
		c-2,0-3.5,0.8-4.6,2.4c-1.1,1.6-1.6,3.6-1.6,5.9c0,2.9,0.8,5.5,2.5,7.8c1.7,2.3,3.6,3.4,5.8,3.4c1.6,0,3-0.8,4.2-2.3
		c1.1-1.5,1.7-3.5,1.7-5.9c0-2.2-0.5-4.3-1.4-6.1c-0.9-1.8-1.9-3.1-3.1-4C131.9,15.8,130.7,15.4,129.5,15.4"/>
	<path fill="#FFFFFF" d="M186.2,38.6c-0.1,0.5-0.7,0.8-1.8,0.9c-2.2,0.2-5.6,0.3-10.2,0.3c-1.8,0-3.4-0.2-4.6-0.5
		c-1.6-0.4-2.6-1.4-3.1-2.9c-0.2-0.8-0.3-2.2-0.3-4.4c0-1.5,0.1-3.8,0.2-7c0.1-3,0.1-5.3,0.1-7c0-1.2-0.1-2.1-0.1-2.7
		c-0.1-0.8-0.8-1.4-2.2-2l0.3-0.9c1.9,0.5,3.3,1,4.3,1.7c0.5,0.4,0.8,0.7,0.8,1c0,0.3-0.2,0.5-0.5,0.6c-0.4,0.3-0.6,0.7-0.6,1.2
		c0,0.9-0.1,3.4-0.2,7.6c0.3,0.1,0.5,0.1,0.7,0.1c2-0.1,5.7-1.3,11-3.6c0.7-0.3,1.2-0.6,1.6-0.9l1-0.7l1.9,1.3
		c0.3,0.2,0.4,0.5,0.5,0.7c0,0.2-0.2,0.4-0.5,0.4l-9.1,3.1c-1.9,0.7-3.5,1-4.9,0.9c-0.8,0-1.5-0.1-2.2-0.3c0,1.2-0.1,2.9-0.1,5
		c0,2.5,0.1,4.1,0.2,4.9c0.2,1,1,1.7,2.3,2c0.8,0.2,2.3,0.3,4.3,0.3c2.2,0,4.3-0.1,6.2-0.3c0.4,0,1-0.2,1.8-0.4
		c0.8-0.2,1.3-0.4,1.4-0.4c0.2,0,0.5,0.1,0.8,0.4l0.7,0.6C186,37.9,186.1,38.2,186.2,38.6 M188.3,14.4c0,0.9-0.4,1.7-1,2.4
		c-0.6,0.7-1.3,1.1-2.2,1.1c-0.9-0.1-1.6-0.4-2.3-1.1c-0.6-0.7-0.9-1.5-0.9-2.5c0-1,0.3-1.9,0.9-2.5c0.6-0.7,1.4-1,2.3-1
		c0.8,0,1.5,0.3,2.2,1C187.9,12.6,188.3,13.4,188.3,14.4 M187.3,14.4c-0.1-0.7-0.3-1.2-0.7-1.7c-0.4-0.5-0.9-0.7-1.5-0.7
		c-0.7,0-1.2,0.2-1.6,0.7c-0.4,0.5-0.6,1-0.6,1.7c0,0.7,0.2,1.2,0.6,1.6c0.4,0.4,0.9,0.7,1.6,0.8c0.5-0.1,1-0.3,1.4-0.8
		C187,15.5,187.3,15,187.3,14.4"/>
	<path fill="#FFFFFF" d="M203.3,25.3c0,0.9-0.3,1.6-0.8,2.3c-0.6,0.6-1.3,0.9-2.1,0.9c-0.8,0-1.5-0.3-2.1-0.9
		c-0.6-0.7-0.8-1.5-0.8-2.3c0-0.9,0.3-1.7,0.8-2.3c0.6-0.6,1.3-0.9,2.1-0.9c0.8,0,1.5,0.3,2.1,0.9C203,23.6,203.3,24.4,203.3,25.3"
		/>
	<path fill="#FFFFFF" d="M236.3,18.7c0,0.3-0.2,0.4-0.5,0.4l-0.8,0.3c-1,3.4-2.5,6.7-4.3,10c-1.9,3.4-4.3,6.1-7.2,8
		c-2.7,1.8-5.7,3.1-8.9,3.9l-0.2-0.7c6.1-2,10.7-5.6,13.8-10.8c1.8-3.1,3.4-6.8,4.6-11.1c-3.6,0.5-6.4,0.8-8.4,0.8
		c-0.6,0-1.1-0.2-1.6-0.4c-0.9,1.8-1.9,3.5-3,5c-1.5,2.2-3.4,4.3-5.6,6.4l-0.4-0.6c3.3-3.6,6-8.1,7.9-13.5c0.2-0.6,0.4-1.3,0.6-2.2
		c0-0.7-0.6-1.3-1.9-1.6l0.1-0.8c1.5,0.2,3,0.6,4.4,1.3c0.5,0.3,0.7,0.6,0.8,1c-0.1,0.1-0.2,0.2-0.5,0.4l-0.6,0.5
		c-0.4,0.9-0.8,1.9-1.2,2.8c0.3,0.1,0.7,0.1,0.9,0.1c1.7,0,4.1-0.3,7.1-0.7c0.8-0.1,1.4-0.3,1.7-0.7l0.5-0.7l2.4,2
		C236.1,18.1,236.3,18.4,236.3,18.7 M237.8,15.9c-0.1,0.4-0.4,0.7-0.9,0.9c-0.3,0-0.6-0.2-0.9-0.5c-1.1-1.3-2.4-2.5-4.1-3.6l0.2-0.5
		c1.3,0.3,2.4,0.7,3.4,1.2C237,14.1,237.8,15,237.8,15.9 M240.5,12.8c-0.1,0.4-0.4,0.7-0.9,0.8c-0.4,0-0.7-0.1-0.9-0.4
		c-1-1.2-2.4-2.4-4.1-3.4l0.3-0.5c1.3,0.3,2.4,0.6,3.3,1.1C239.7,11.1,240.5,11.9,240.5,12.8"/>
	<path fill="#FFFFFF" d="M270.9,20.8c-0.9,1.5-2.6,3.4-4.9,5.8c-4.6,4.7-8.9,8.3-13,10.8c-0.4,0.2-0.8,0.7-1.2,1.3
		c-0.3,0.5-0.6,0.7-0.8,0.8c-0.2,0-0.4-0.1-0.5-0.4l-1.9-2.6c0.4,0,0.7-0.2,0.9-0.4c0.1-13.1,0.3-20.1,0.4-20.8
		c0-1.6-0.8-2.8-2.3-3.5l0.3-0.6c1.5,0.2,2.8,0.7,4.1,1.5c0.5,0.3,0.9,0.7,1,1c-0.1,0.1-0.3,0.3-0.7,0.7c-0.3,0.2-0.4,0.5-0.4,0.9
		l-0.3,20c1.9-1,4.7-2.8,8.3-5.5c3.9-2.9,7.4-6.1,10.6-9.4L270.9,20.8z"/>
	<path fill="#FFFFFF" d="M299.7,16.6c-0.1,0.2-0.3,0.4-0.4,0.4l-0.8,0.3c-0.2,3.6-0.5,8.8-1,15.5c0.1,0,0.2,0.1,0.3,0.2l0.9,0.8
		c0.3,0.3,0.4,0.6,0.5,0.9c-0.1,0.3-0.4,0.5-1.1,0.5h-5.8c-3.2,0-5.8,0.1-7.7,0.3c-1.9,0.1-3.2,0.4-3.9,0.9l-0.7,0.4
		c-0.3-0.1-0.7-0.3-1-0.7c-0.9-1.2-1.7-2.4-2.2-3.7l0.5-0.3c1,1.3,2.1,1.9,3.4,1.9c0.1,0,1.2-0.1,3.3-0.3c1.9-0.2,5.3-0.3,10.5-0.3
		c0.3,0,0.7,0,0.9-0.1c0.4-6.2,0.7-11.7,0.8-16.5c-5.9,0.1-10.4,0.4-13.5,1c-0.5,0.1-0.9,0.3-1.3,0.6c-0.4,0.3-0.6,0.5-0.6,0.5
		c-0.1,0-0.3-0.2-0.7-0.6c-1.1-1.3-1.9-2.6-2.4-3.9l0.6-0.4c0.8,1.1,1.9,1.8,3.2,1.9c1.1-0.1,3.3-0.3,6.6-0.4L296,15l0.9-1.1
		l2.2,1.9C299.4,16,299.6,16.3,299.7,16.6"/>
</g>
</svg>
